{
  "routes": [
    {
      "method": "GET",
      "path": "/interests",
      "handler": "Interest.find",
      "config": {
        "policies": []
      }
    },
    {
      "method": "GET",
      "path": "/interests/count",
      "handler": "Interest.count",
      "config": {
        "policies": []
      }
    },
    {
      "method": "GET",
      "path": "/interests/:_id",
      "handler": "Interest.findOne",
      "config": {
        "policies": []
      }
    },
    {
      "method": "POST",
      "path": "/interests",
      "handler": "Interest.create",
      "config": {
        "policies": []
      }
    },
    {
      "method": "PUT",
      "path": "/interests/:_id",
      "handler": "Interest.update",
      "config": {
        "policies": []
      }
    },
    {
      "method": "DELETE",
      "path": "/interests/:_id",
      "handler": "Interest.delete",
      "config": {
        "policies": []
      }
    }
  ]
}
